{
	"evmVersion": "london",
	"libraries": {},
	"metadata": {
		"bytecodeHash": "ipfs",
		"useLiteralContent": true
	},
	"optimizer": {
		"enabled": true,
		"runs": 1300
	},
	"remappings": [],
	"outputSelection": {
		"*": {
			"*": [
				"evm.bytecode",
				"evm.deployedBytecode",
				"devdoc",
				"userdoc",
				"metadata",
				"abi"
			]
		}
	}
}